斯坦福极简经济学	8747171
金钱有术	9710486
从零开始学炒股	9625589
一本书读懂财报	4867870
MBA教不了的创富课	3598791
新经济，新规则	5697913
管理的实践	854619
反脆弱	2810274
长尾理论	2474051
历代经济变革得失	4908884
品牌洗脑	787760
精益创业实战	3261215
大数据	4545703
黑天鹅	2010442
大败局1	1184026
大败局2	1188594
平台战略	787967
中国企业跨境并购	4489243
大众经济学（中文版）	2440154
斯坦福的第一堂创业课	5845932
国富论	644838
非理性繁荣（第二版）	5771377
激荡三十年（上）	408334
绩效致死	1546623
免费	245989
一个证券分析师的醒悟	296185
动荡的世界	2711728
十年沧桑	5657844
激荡三十年（下）	411394
估值就是讲故事	5464702
国富论	3922120
哈佛大学第一堂经济课	5867327
走出电商困局	2185887
经济解释卷二：收入与成本（神州增订版）	578037
驾职有道	6396109
写给中国人的经济学	862461
城乡中国（上）	1733975
社交红利（修订版）	3218357
21世纪的管理挑战	846834
资本论	757729
经营的本质	5805069
还原真实的美联储	2392060
一本书读懂中国税	1828242
智能时代	5691526
跌荡一百年（上）	689215
经济解释卷三：受价与觅价（神州增订版）	577402
巨变时代的管理	980250
适合比成功更重要	1748407
资本的年代（1848～1875）	3015627
说谎者的扑克牌	437359
移动风暴	2631452
国富论：插图本	778339
这次不一样	1041527
这些年，马云犯过的错误	4583281
郎咸平说：萧条下的希望	5649082
白话金融投资	1045892
全透视简明中国通史·1	3644735
全球整合营销传播	1017825
自私的皮球	581779
为什么中国人勤劳而不富有	318271
我最想要的理财书	375503
浩荡两千年	388888
沃顿管理精要：读懂财务语言	1157792
竞争性销售	1009320
管理（原书修订版）（上册）	1280473
笑傲股市	865518
生活中的经济学	1282649
对话私募股权与风险投资大师	1051593
非理性繁荣与金融危机	2419838
自动营销	2186091
我最需要的理财常识书	1466818
改革的逻辑	1762748
国富论 	1069255
时寒冰说	725832
激荡三十年：中国企业1978-2008（纪念版）上册	5340811
互联网金融	3053690
赢得输家的游戏	1010441
商业计划宝典	1011624
营销关键点	1037420
双重悖论	2425027
卓有成效的组织管理	4576993
经济学原理	772114
哈佛最受欢迎的营销课	2800884
影子里的中国	2600238
管理：使命、责任、实务（实务篇）	852853
如何改变世界	1335349
激荡三十年：中国企业1978-2008（纪念版）下册	5348885
他们创造了美国	2170892
巨富	2298876
我为什么要投资你	1231770
索罗斯带你走出金融危机	5835196
消费心理十四讲	3156635
跌荡一百年（下）	692428
任你评说	430145
老二非死不可	2324856
一篇读罢头飞雪，重读马克思	4442746
看懂世界格局的第一本书2	1047001
经济运行的逻辑	1217979
授权	5834830
范·撒普的超级交易员训练法	1034246
八〇年代：中国经济学人的光荣与梦想	266021
卓有成效的个人管理	4570811
中国经济：警惕黑天鹅	2867745
管理（原书修订版）（下册）	1281922
罗斯福炉边谈话：经济篇	6049186
高盛帝国（下）	262238
中国，下一个日本？	443519
创业可以走直线	1289755
微创新	3902355
华尔街之狼	3006062
创业是一种生活方式	4483480
成果管理	990660
微博营销	746810
魔力创业	2818911
国家为什么会崩溃	1119750
另一个欧洲	1923429
环保的暴力	1187329
一炮走红的国家	1118873
大目标	1449949
揭秘不可估量的财富（一）	5805868
用经济学解释我们的生活	1152321
创新的国度	3890070
大繁荣	1899221
新金融秩序	2240753
管理前沿	973204
在股市大崩溃前抛出的人	1155849
民富论	1044546
凯恩斯大战哈耶克	813021
高盛帝国（上）	261848
水煮三国	1272230
提高财商多赚钱	1068601
危机与变革	1070959
大保单销售	774977
埃隆·马斯克传	5080358
政府的本分	597460
猎杀黑马	730409
0元机票的秘密	3428961
格鲁夫给经理人的第一课	1333897
常识	4668843
被洗劫的中国财富	1886319
竞争与繁荣	1891596
看懂财经新闻的第一本书	845354
萧条经济学的回归	2298561
卓有成效的社会管理	4570474
大拐点	570253
卓有成效的变革管理	4566714
大转折时代	2187651
超级交易员	1375651
黄金崩溃	5852190
经济哲学	1203851
无知的博弈	975509
拿什么拯救中国经济？	400371
好产品坏产品	2063902
一只iPhone的全球之旅	781188
克强经济学的风格（中国故事）	1965493
“中国模式”到底有多独特？	396595
移动浪潮	785660
小趋势：中国经济的关键变数	3674030
舒立观察 	594892
视界无疆	1061579
全世界最贵的总裁情商课	1290628
错觉	244050
解读华尔街（原书第5版）	1542220
巴菲特写给股东的投资年报	3981553
规则与繁荣	1616447
非理性亢奋	354326
未来中国的变与不变	3784589
我们需要多少钱	1017314
中国式投资	2478630
创新者的挑战	1266659
体验为王	3038972
像扎克伯格一样思考	4010306
听任志强怎么说	1890177
市场的逻辑	3614721
在不如意的人生里奋起直追	4733312
三星崛起之道	983439
活学活用博弈论	852951
就业、利息和货币通论	783412
关于财富的形成和分配的思考（中英双语）	2028530
世界上最神奇的理财课	3166230
向格雷厄姆学思考，向巴菲特学投资	864470
这才是经济学	861739
经理小细节，公司大不同	1018592
经济学是个什么玩意	1015980
看懂中国贫富差距	739616
税收的逻辑	398958
郎咸平说对了吗	776837
揭秘不可估量的财富（三）	5807834
揭秘不可估量的财富（二）	5806478
不要相信美国	2252489
沃顿管理精要：领导者的备忘录	1160513
以一当百：互联网时代的效率手册	4857959
基金长青	1070561
日本商业四百年	768794
每天学点经济学	1158153
企业上市解决之道2	1216863
巴西的经验	3934672
商变	3860875
国企改革新思路	2872162
企业家来信	5323201
《盗梦空间》与亚当·斯密	1967923
商业性质概论（中英双语）	2074211
债务海啸	2185546
张茉楠说：中国财富分配的革命	4801506
重口味消费心理学	2112922
创业者的经营与金融战略	1040554
狙击中国	1073149
吴敬琏：风雨八十年	752818
儿子的存钱罐	785843
大萧条时代	2182257
中国经济双重转型之路	2131933
日本商业四百年.2	765421
创业那些事儿	742835
任志强：强“捍”（中国故事）	1669553
牛刀说：我们怎样过上好日子	775886
上海自由贸易区指南	1755368
吴敬琏谈“钱荒”（中国故事）	2537501
愤怒的凉茶（中国故事）	2536215
看懂中国经济的第一本书	486472
像彼得·林奇一样投资	975649
一个自由主义者的良知	2290256
推手凶猛	1197840
兜售繁荣	2294599
哈佛肯尼迪政府学院的精英课	784632
原来这是经济学	2899427
三星帝国	2468080
亲历全球金融危机	2871099
中国大形势	2882706
士志于道	1893461
德鲁克的最后忠告	1053923
现在终结萧条！	555071
谁更了解中国	408577
大衰退时代	2173533
牛刀说货币	777031
财政学	1200306
自主权利的道德界限	1186915
大国兴衰	406042
商业模式的力量	1076965
高盛阴谋	766213
解密比特币	2693073
经济学的缺陷	1165333
精益创业家	4513637
中国隐性权力调查	3481450
巴菲特阴谋	778157
移动就是一切	2609137
揭秘不可估量的财富（四）	5808175
美国算什么	965811
大繁荣时代	2173397
财富的分配	759275
中国新趋势	1741398
中国企业成长调查研究报告 2013	2503270
改革	3635379
管理的偏见	1177101
谁绑架了上市公司 	1050461
黄金保卫中国	1046896
大预测	575534
革新你的品牌	784226
乱世中的大国崛起	471598
甲子1	2830982
世界如此危机	1078905
首席转型官	2881084
国际贸易实务：原理·技能·规则	18740608
零基础炒股：从入门到精通	13344127
中国粮食生产调查	13110807
汇率战争	10229293
联想涅槃	9498693
健康对中国经济不平等的影响	16296327
领导力基因	8904472
中国式私募股权投资（2）	10587157
底特律往事：汽车之城衰落史	9216092
白银资本：重视经济全球化中的东方	10900789
瞄准日本财团	12495233
美德的起源：人类本能与协作的进化	12124553
制度改变中国：制度变革与社会转型	9722891
大宋经济人	16388024
我的第一本出纳岗位入门书（超值图解版）	15424084
互联网金融+	15467515
181招你想都想不到的降成本法	10087279
思悟偶得	19488866
后危机时代中国企业跨国直接投资战略选择	12382598
新加坡产业发展解读：产业体系构筑与现代园区建设	19104587
经济新闻实务	11534315
一个城市的发展探索	10965629
我们的掌政模式	16202890
“野蛮人”入侵万科	19438037
浩荡两千年：中国企业公元前7世纪~1869年	10000464
非赚不可	10195867
理财，你要去银行	10566406
经营的逻辑	10249728
产权的逻辑	9751030
新手学外贸——从门外汉到行家里手	18880783
这方水土这方人（下）	16261038
资产分配（原书第5版）	8162843
可怕的市场周期	10113904
卖水的哲学：无处不在的可口可乐（名企真相系列）	13333033
我在高盛的经济预测法	9173435
金融危机与改革	9754660
中国消费品市场监测与分析报告（2013）	18380448
纪小羊和她的会计工作	10222813
国际特许经营	18253099
6S精益推行图解手册（超值白金版）	9585950
白手起家	10710839
西方的衰落	9750631
杠杆黑洞1	19935624
理财就这么简单	14266617
空头之王	8919755
汇率战争	10689602
中国经济增长十年展望（2014～2023）	11436279
失衡：后经济危机时代的再平衡	8524625
零售业的新规则	10567232
沸腾的十年	15813361
江山永续：一本书读懂五千年领导哲学（第2版）	10080829
2013农村信用社招聘考试专用系列教材:经济、金融、会计（最新版）	12506061
金融的解释	8534874
城镇居民收入结构、不稳定性与消费研究	19665917
黄河三角洲高效生态经济区发展报告（2014）	18528591
国民经济核算理论与中国实践	18157946
养老大趋势：中国养老产业发展的未来	9866029
奥巴马政治经济学	18537315
消费力经济学	11604439
国富论(全译本)	17415340
图解财务报表 (图解财会系列)	11144617
中国未来30年III	10801311
《管理经济学（第五版）》习题解答与题库	18058889
香港股票最佳交易策略	11289520
农产品经销与仓储	20250192
中国经济增长，靠什么	9702926
新战略营销:第3版	10905577
繁荣的背后	10085217
北大清华口才课	9687318
为什么做豆腐生意总赚钱	9622056
中国传统经济思想经典文选	18093068
经济发展对中国农村家庭时间利用性别差异的影响研究	19652596
商业模式全史	18130270
餐饮红利	9754138
新手学看盘大全集（实战技巧版）	10092922
财富与人性	16912265
黑马波段操盘术（升级版）	14712666
财务会计实务	12605299
金桥范式	7793931
兴衰大国	9881250
基层财政建设浅说	11533424
效率达人——高效工作50招	10538353
国际经济学教程（第二版）	17828497
最佳商业模式	6951735
这方水土这方人（上）	16261327
创意才是核心竞争力	9546114
俄罗斯问题研究（2013）	19151864
丝绸之路经济带：发展选择与陕西对策论文集	12888490
中国人的管理世界：中国式管理的传统与现实	18058428
预见相关性：风险管理新范例	10152794
中国上市公司并购重组与中小企业股份转让系统挂牌业务实务	12386642
中国酒业经济观察	19675884
山东半岛蓝色经济区发展报告（2014）	18534833
街头门店生意经	10710056
竞争与繁荣：中国电信业进化的经济评论	10299648
中国房地产大趋势	12494971
何处安家·中国楼市见闻录2014	10584070
创业教父	10421656
金融区位导论	18723017
管理经济学（第五版）	18041280
审计学（第三版）	11567240
降价增利握商机	12129781
中国新战略	12351370
超级中国	19957955
中国大时局：当下中国七大阶层分析	8267997
论道中国发展：金帝雅论坛实录	11703004
自食恶果：欧洲即将沦为第三世界？	9703217
股市名家操盘指标大揭秘	10082018
北部湾崛起	12574451
如何开赚钱公司	10468621
资本主义（中文版）	2619987
结婚之后，你拿什么养活孩子	12605872
一看就会的会计入门书	14188005
集装箱码头运营商海外拓展研究	11834576
经济法（第四版）	16597533
羚羊投资者——仙人掌周刊	19292610
我国中小型企业的结构性困境及对策研究	11588217
买入大牛股的9个关键（雪球「岛」系列）	19676894
债：第一个5000年	9316903
第二次机器革命	9319160
生活在极限之内	13446500
在那西天取经的路上	10073783
金融帝国	10916096
负利率效应下的中国经济	18499213
当代世界政治与经济	18152326
中国企业对外直接投资的动机与路径研究	18430392
大国企	7812858
《资本论》经济行为理论的具体化	17862395
别败在不会管理上	10431423
疯狂的赞助	10562362
中国富人为何变穷	10263099
微博论语	10866965
别败在不会创业上	10431342
水平营销	8848497
马克思“世界历史”理论与经济全球化指向	16460442
读懂日本战后60年	10435984
大数据营销	18156587
经济法概论	18154304
资本主义大变形	9722923
顾所来径：崔永庆参事文集	15950066
中国经济效率	7585137
中国经济这些年：关乎你财富的八件事	18877673
吴敬琏文集（套装共3册）	11894630
中国西部农业合作经济组织生命系统发展研究	19723648
健康经济与上海的转型发展	19030424
市场有效周期理论的构建、实证及应用	18440915
图解财务报表	13401973
四步创业法	10008525
阿里商业评论：跨境电商	19292379
宏观经济内外均衡与我国外贸发展战略调整分析	11532417
玩的就是信用卡：省钱、赚钱、贷款、提升额度208招	12533313
智慧工厂：中国制造业探索实践	17826026
世界经济新格局下的中美经贸关系	16078483
国民收入分配结构：形成机理与调整思路	16177285
无界	10066837
估值技术：CFA协会机构投资系列	10422037
新战略，新思路	16249384
龙行天下	10006932
重启	7858311
原来，财政学可以这样有趣	11614907
中韩日经济三国演义——谁为胜者	12887772
全球经济失衡研究	12089095
城乡可持续发展与公共政策：北京故事	18341964
政治算术：西蒙·库兹涅茨与经济学的实证传统	10082183
Money小姐的日记	11066322
中国就业战略报告：金融危机以来的中国就业季度分析（2015）	18431009
一个农民的亿万传奇	12576224
金融、发展和改革	9950457
2013中国煤炭工业发展研究报告	12652202
破译黑天鹅	8740794
世界上最神奇的24堂理财课	20263574
城市化转型与土地陷阱	12913222
国家血脉	11093590
投资答案	10576458
工业4.0：正在发生的未来	9573350
全球价值链治理	8927487
中国经济思想史撷要	9785928
教室外的经济学	10447216
巅峰营销：2013中国电商营销案例年鉴	7833387
网上创业指南（第2版）	10063647
大变局：全球互联新未来	19036631
找我1	9617906
增长的本质	19565646
用几千元本钱发财的50家店铺	10713274
构建内生增长动力的老工业基地振兴道路	12385197
地方政府基础设施债务融资研究	19029663
上海（中国）房地产发展报告（2014-2015）	16304131
金融新格局：资产证券化的突破与创新	10565731
中国早期现代化历程的回顾	20375535
基础优势：以能力驱动战略制胜	15825521
社会主义市场经济在重庆的实践案例集（一）	20376220
欧债真相	8719847
家庭理财万事通	9675635
打造金牌店长	10711626
柴米油盐中的经济学	9676172
传媒经济	15815259
茶与咖啡	15938424
金融创新风险与收益匹配问题研究	12382198
政企合谋与经济增长：反思“中国模式”	18252873
改革、发展与创新：二十二届全国书博征文集	15936055
藏区国家基层政权建设及成本实证报告	19726149
一看就懂的融资常识全图解	9008596
金融是杯下午茶	15501388
让数字说话：审计，就这么简单	19632824
政治经济学原理	16259810
碰撞	9771325
袁文平文集	11616980
集装箱改变世界（修订版）	11830709
一个城市的发展探索	10965568
中央企业品牌建设报告.2014	12384145
每天都会用到的生活经济学	9675936
妙趣横生的博弈论	9855200
李嘉诚内部讲话：关键时，李嘉诚说了什么	7961399
长三角地区制造业与服务业融合发展研究	19029407
时寒冰说	10511423
从零开始学跟庄	10125215
美元复兴十年？or中国痛苦十年？	10170349
中国服务业“体制病”研究	17090500
2015长三角地区经济发展报告	16178121
别说你不懂客户2	9583850
最后一轮泡沫	9708374
劳动力市场中介与就业促进	18001455
营业税改征增值税：物流行业纳税实务指导及案例分析	15596405
平台型电子商务集聚机制研究	12383210
全能销售	5854271
自商业：未来网络经济新形态	7877236
富豪游戏	19976659
马丁·惠特曼的价值投资方法	8964435
金融战	9890059
共享经济	15154983
中等收入陷阱	18287683
每天学点投资学	11075167
数说经济与社会	19060209
市场机会的寻找与评价	16240968
聚焦民生新常态	8866322
系统管理的力量	16942084
东盟新机遇：科特勒带你探索东南亚市场	19934968
房地产行业会计实战演练全书	10023842
品牌谋略	9857511
“十三五”大战略	19711783
中国式管理的智源	10768524
业绩才是硬道理：员工版	7981503
会计核算和纳税处理实用手册	10126633
零售商业模式研究	19488196
近代中国税收现代化进程的思想史考察	11745399
经济学了没？	19084091
断层线：全球经济潜在的危机	9705120
投资前必须读懂宏观经济	15349228
领导这么问，员工才有执行力	12605320
全球传媒经济	15676583
共富治国	19265582
x的奇幻之旅	10557370
价值银行	11435159
互利	10085004
中国经济大趋势	12494535
调查与研究	16234128
资本主义万恶吗？	10586118
创业家：福利来了，新三板扩容	9217155
新常态改变中国2.0	15569931
经济、金融与基督教视角	16177495
可不可以不加班	13333203
犹太人惹了谁	10491336
期权波动率与定价：高级交易策略与技巧	7688277
听李嘉诚讲经商之道	8293751
重寻无处：五常行游录	9758066
精益经营之道：企业创造顾客赢得利润的背后逻辑	10351887
有效资产管理	10163440
转型时期我国医药商业供应链的合作研究	19723156
中国民营企业品牌建设报告.2014	12384413
快递之王: 顺丰掌门人王卫	8135089
总部管理	18252450
北大清华经济课	9687217
掘金印度	10684129
过密化背景下的市场作用	16346801
股票市场入门	10153578
政协智慧：聚焦经济新常态和全面深改路	9949260
成功的营销学	11448991
科斯与中国	10566003
价值投资的中国式守望	13650391
FDI与经济增长：中欧双向“走出去”战略比较研究	12085434
国富论：插图本 	13676158
《资本论》解读	18010538
新营销战	10151511
Hi,Ripple	9758668
印度产业政策演进与重点产业发展	16848790
让领导放心	10711449
越玩越有钱：世界上最经典的108个财富游戏	9697903
摇钱树	12103141
经济学课件I：货币政策与经济复苏	13411358
机器人时代	12043872
喝茶聊天经济学	7789950
谁将主导世界货币？	10574451
资产评估理论与案例分析（第二版）	18124371
海尔是海：张瑞敏随笔选录	8637872
两次全球大危机的比较研究	12578203
服务营销	18139779
一带一路双向投资研究与案例分析	19293682
穷朋友富朋友	10710422
公司财务实证研究：重点文献导读	18107523
管理学基础	18444607
服务业理论与实践	12386818
像教练一样带团队	9770156
20几岁一定要懂点投资理财	10430287
做最聪明的投资者	9859961
资源整合赢天下	12495587
国际结算（第四版）	16597459
谁在制造经济恐怖	10474233
2.0时代的赢利模式	11952838
企业崛起	10711191
财务会计（第二版）	12790753
低风险投资之路	12886707
货币崛起	8532512
我的公司要上市	10081271
经济增长的过去、现在和未来	13411575
财富新局	10238877
夕阳下的星条旗	12068432
一看就会的财务报表入门书	14187657
自由选择（珍藏版）	7589329
软实力：中式成功领导品质	10766956
当下的冲击	9703665
O2O复盘：10大企业O2O模式与操盘方法解密	18109959
论中国矿业可持续发展	10964779
美利坚沉思录：伟大国家的自白与自省	8524967
别太单纯，也别太不单纯	10432232
粮食主产区农村金融体制创新路径的实证研究	19652604
无主货币(2)——2015年中国数字货币研究报告	17090377
经济金融系统的复杂性研究：基于若干多主体模型的探讨	10380632
网络快富：赚钱最快的生意经	10713486
就是一本简单的经济学	9707754
主权债务危机和经济可持续性	12245551
想要发财就动起来	14892707
SEO实战宝典	10024831
政府的价格	8615719
金融心理学	9718877
国家命运套装	17431478
供给侧改革引领“十三五”	19316461
海外中国研究报告.2014	16322426
零边际成本社会	8534313
新制度经济学意识形态理论批判与我国意识形态安全研究	10835875
中国关键：提升经济国际竞争力	12918274
一带一路国外投资指南（上）	19311840
转型与冲击	12044548
面对面教你炒股	12383498
全面深化改革与世界经济（英文版）	18430253
互联网金融与中小企业融资	12383889
新思维新视角	16248802
第四次浪潮：绿色文明	10561272
营销：人人都需要的一门课	19290642
美国人的房产经	16645766
必要的改革：中国改革的路径与选择	9752373
深改元年：与经济智囊对话	12385827
中国供应链：前沿与趋势	18430466
信息产业对地区经济发展的贡献及政策研究	11617428
国际政治经济学概论（第二版）	17828385
富同学穷同学	10591616
电商的掘金之路	9754258
发现商业模式	10302407
只要出发，就能到达	9594157
2013长江三角洲经济社会发展报告(第5辑)	19028374
震荡市场投资策略	9719997
当代中国多元利益矛盾的法经济学分析	16176645
中国可持续发展的双轮驱动模式	19723576
20几岁我想要的能力	11065521
中国—阿拉伯国家经贸论坛理论研讨会论文集（第2辑）	16288805
看透经济学的世界，用活经济学的知识　	9853643
传统品牌如何拥抱电商	9754043
可口可乐不规则营销	12593689
盘活	7744142
阿拉善教育百年记忆（1882～2010）：阿右旗和额济纳旗卷	15902565
商界裸奔	9357601
财经新闻经济学	9489508
美国工人工资变动形式研究	17919579
创新红利：中德金属生态城新发展	11435231
金融与好的社会	9719290
必然	18160757
缔造帝国经济的50位巨人	16389441
塞上潮音	16144777
中国家庭金融调查报告·2012	11690109
中国新一轮对外开放	12918152
褚橙你也学不会	9393432
全面深化改革与世界经济	18467005
中国能源经济展望（2014）：资源税体制研究	18121980
中国养老保险扩面问题研究	18077579
互联网+兵法	9603975
幸福离我们有多远	20097190
投资丛林制胜法	9474534
中产阶层理财经	14853252
中国企业的下一个机会：成为价值型企业	10079040
土地问题与南非政治经济	17676230
逃不开的经济周期	9460821
股市风云二十年	9885369
中国现代服务业发展报告（2012）	18374914
投资·经济·金融常见术语实用手册	12494362
零基础学会计	10127779
上海城乡基本公共服务均等化问题研究	16664567
重新发现市场:一部市场的自然史	11434876
金融改革协调推进论	10043994
技术分析（原书第5版）	18110415
买买买时代的行为经济学	18785831
穿越镀金时代	12913346
中国式通胀	15062955
贸易金融	9755237
非营利组织绩效评估	18656385
从白领到精英	10711380
中国区域生态经济发展战略模式研究	19676085
中国经济的未来之路	15619617
三井帝国在行动	12494220
中国能源经济展望（2015）	18488200
德鲁克思想的管理实践	7681867
金融计量学：时间序列分析视角	18012969
地权的秘密：土地改革深度观察	8637770
商铺投资创富手册	10771098
创业的旅程：为什么Google选择了我们？	9757762
经济信息传播与媒介竞争力研究	15846265
中国特色社会主义经济理论热点问题研究	17711149
新型农村金融机构可持续发展研究	19652429
重要矿产资源可持续供给评价与战略研究	19723269
揭秘长江商学院	19487993
经济法（第四版）	16597099
我的公司要融资	10081303
互联网经济	13106322
刘诗白文集：第9卷	11702970
大数据银行	19632192
赚未来十年的钱	10593958
当代资本主义经济研究	18058791
货币	10565021
经济与贸易评论.第6辑	11872168
浦东开发开放研究	16303223
劳动法（第四版）	18106287
犹太商人大智慧	12591881
别败在不会理财上	10431702
金色的羁绊：黄金本位与大萧条	16642663
风投大师：揭秘创业与融资	8095705
美国次贷危机研究	11835213
会计岗位综合教程（下册）	18375035
大停滞？	10308939
好品牌自己会说话	11073089
货币放水的尽头	19632558
索罗斯的救赎：一个自私的人如何缔造了一个无私的基金会	10575127
伟大的博弈（珍藏版）	10329077
产业网络集成创新与政府作用的研究	18439492
房地产典型案例评析	15822402
法律经济学趣谈	19059980
思维流操盘术：预见未来成就巨额财富	10125929
襄言随语：地方经济社会科学发展与改革创新	18152692
股东特质与企业财务行为研究	11703929
高歌思语（下）	15936322
常识赢天下：成功人士的共同秘密	5150747
从零开始学看盘（全彩版）	10129111
数字解读万科：房地产管理之道	10176331
投行笔记	10259149
在非洲发现中国	11574833
颠覆者	7811963
旅游经济与旅游管理研究	12075260
新浪·长安讲坛第十辑中国经济新常态与政策取向	12385773
中国经济史学科主要奠基人	11635195
世纪之争	13708596
农民市民化与制度变革	13110481
大分化：全球经济金融新格局	12877015
十倍薪与百倍薪的快意人生	2519029
中国零售业发展监测与分析报告（2014）	18079903
中国优势——经济增长的路径抉择	12887228
职业技术教育与县域经济耦合关系研究	16288097
采购成本控制与供应商管理	8056111
精巧创业开店点子：选个赚钱的项目	10688971
大数据战略——个人、企业、政府的思维革命与红利洼地	7961651
市场营销学	18120927
比尔盖茨最实用的11种经营策略	18211947
打造中国经济升级版：战略构想和总体设计	16136806
新华社国际金融危机报道研究	19724372
改革的深化与发展的升级	16167973
机械交易系统	17420519
我的钱：互联网金融，如何理财？	17714146
世界资源真相 和你想的不一样	3147502
孔门理财学：孔子及其学派的经济思想	17623995
敢教日月换新天——毛泽东与当代中国经济	11511358
中国农产品流通现代化的实证、战略与对策	19723814
修炼你的独到之处——大学会计，应该怎样学	11618193
非赢不可：股市赚钱35个狠招	10128266
定位：从想明白到做到位	10071156
高级财务管理学（第三版）	18107193
债券博弈	18434873
“中国腾飞”探源	19059728
2015年泰尔ICT深度观察	17901148
石油大棋局：下一个目标中国	16784499
嫁人经济学	8312917
我国汽车产业的技术整合与技术能力成长	19652983
中国共产党盐池史：1949～2010	16291151
中国矿产资源收益分配研究	19490044
一版头条	19489219
稻盛和夫的经营法宝	10434233
耕者无疆	19487660
社会主义公有资本论	18074449
我国社会保障支出对效率与公平影响的实证分析	11746092
一切从改变开始	8285680
低生育水平下中国经济增长的可持续性研究	11529981
中国式去杠杆：空中加油	12917741
上市公司并购绩效的理论与实证研究	12382232
中国经济新格局	10247222
田野的希望	16304852
江苏商务发展报告（2013）	18374494
贯彻落实科学发展观与深化财税体制改革研究	18052078
中国PPP示范项目报道	19489790
中国（上海）自由贸易试验区：理论分析与实践探索	15839754
穷思维，富思维	15086295
中国的货币金融体系（1600~1949）	18008622
什么决定中国未来？	10173973
给业余投资者的10条军规（雪球「岛」系列）	17218496
崔敬伯财政文丛（全三册）	11664755
谁动了中国经济	19982766
阿拉善教育百年记忆（1882～2010）：盟直卷	15902121
陪你学财务报表分析	10175434
创客成功指南	16645505
谁动了企业的利润	12536350
普州集报潮	16141768
发展传播学视角下的经济报道	15797857
ICT制造业的产业经济分析框架及实践研究	10010377
社区管理与服务	19654375
创业榜样	9481582
科技企业孵化器与创投合作治理及政策研究	12504698
供给侧改革：新供给简明读本	19316281
世界的黎明	19687834
财政政策的就业效应研究	11709610
移动互联网营销	7603361
财务报表分析（第二版）	18010482
纪小羊和她的出纳工作	10247185
中国现代服务业发展报告（2013）	18374785
企业纳税业务与税务筹划示范大全	10033199
二十一世纪资本论	9254833
资本的秘密：金融危机与大萧条经济周期的规律	12596565
攫财大亨	10565690
一看就会的会计做账入门书	14187545
可持续领导力：卓越领导者知行合一的7项法则	15671769
荣誉、地位的最优分配：组织中的非物质激励	18438965
五年规划编制的理论与实践：基于地方案例的思考	12386998
天使投资人的忠告	10246934
楼市与爱情	19292983
中国和平发展的基本路径	18092774
所有制与经济体制悖论	17792144
对冲基金风云录3：王者私语	9710255
饭局经济学	12560425
20几岁要知道点经济常识	20380557
生活中耳熟不详的财务概念	11566967
全球经济史（中文版）	9273657
互联网+：跨界与融合	9602872
天然气革命：页岩气掀起新能源之战	12244820
贸易的真相	9947965
以色列谷：科技之盾炼就创新的国度	9173393
品牌的力量	18223331
经济刑法（第十五辑）	16660171
俞敏洪内部讲话：关键时，俞敏洪说了什么	7965106
复活的日本财阀	10230706
金融消费者刑事保护问题研究	16177305
富民之路	20256604
人民币国际化	16379958
城镇化和PPP大岳随笔	19082177
廉价：折扣文化的惊人代价	9717867
说中国：未来10年的机会与财富	20085506
中国－阿拉伯国家经贸论坛理论研讨会论文集	16330918
股市长线法宝（原书第5版）	15748884
我们离世界第一经济大国还有多远	10480797
乡愁的成本	18954224
从零开始学选股	10134381
从邻居的不幸中学习	10559017
城与乡	15941661
慈善的商业模式	10050929
中国国际政治经济学	17709645
互联网+流通：F2R助力传统产业创新与转型	17940170
经济大变局，中国怎么办？	18785588
小企业融资创新研究	11604690
Copy Right!模仿如何激发创新	12237476
十年股市路	7655490
财富、债务、不平等和低利率四大趋势与启示	15156128
看清经济新常态	8865934
手把手教你做优秀出纳	10219028
居民消费研究	16178403
中国碳市场建设初探	11829420
终结贫穷之路	9893992
互联网金融知识读本	18516769
传播与社会	15721367
高职财会类专业实践育人DACE模式的改革与实践	18528645
赢在众筹：实战·技巧·风险	12384349
玩转全面预算魔方	7651836
货币信贷与人口周期影响下的中国经济转折点	12384260
农业教育传播	15890961
高收益的秘密：如何用高收益投资方案赚大钱	19720869
新能源汽车及锂离子动力电池产业研究	12678872
我缔造的团队	14333542
大商战	16098138
市场经济周期循环运行定律研究	19488638
财报越看越有趣	7815243
投资美国	7816892
市场调研：应用R软件	18053093
隐谈判：后台交易	10768202
黄金崩溃	16529427
定量投资分析（原书第2版）	10114288
养老金革命	16642331
支付革命	10582793
城乡经济互动机制及其政策研究	11528880
工业物联网产业发展战略研究	19029541
互联网银行	9908268
新供给：经济学理论的中国创新	12582277
勒紧联系客户的裤腰带	12136554
第四次零售革命：流通的变革与重构	12382417
税的真相	10574795
大空头	9215188
再造商学院课堂：智慧地学习商业智慧	10126940
迈向生态文明新时代———贵阳行进录（2007-2012年）	18054270
审计案例与实训	16596137
向巴菲特学点投资真本事	10538916
21世纪中国生产力总体布局研究	18366798
被误读的中国经济	12912323
江河水	7221807
92派	10556352
犹太之商道	18256649
内嵌的自由主义	16353546
轻松看透经济，实现你的财富自由	12650998
庄家那点事	9894105
经济与法律：科斯四大定律猜想、民商法建议900条（全2册）	11950759
合理节税	10196414
产业集聚与资源的空间配置效应研究	19726220
改革开放后会计人员管理体制发展演变研究	19725932
成败取决细节	10420653
走向繁荣的战略选择	19652187
他们都在看：中国企业家基础阅读书目	13765054
旧格局与新周期	10239790
当代中国经济政治协调发展研究	17642861
在日常小事中培养自己的经济头脑	18287552
人民币国际化报告2014：人民币离岸市场建设与发展	18154776
商品流通行业会计实战演练全书	12650108
投资是一种思维	9770059
无为而治：设计自动运行的企业制度	13223558
北大经济课	12555977
新产业革命与上海的转型发展	16307238
媒介化社会与经济增长	15853111
高成长餐饮企业经营手法及操作要点分析	10908075
别找了，客户藏在名片里	7059798
移动社交电商	19293225
经济学原理	18051995
迷失的盛宴	16421888
经营人心	19487877
美生系列套装——《金融时报》干货精选	17004085
一念之间：戴立宁的感慨与谏言	9866597
市场的钟摆永不停	9668187
论转型期我国居民财产性收入的调控	11745914
财务管理	16175085
一以贯之	9866697
中小板与创业板掘金非常道	10125843
产品消费情绪与购后行为关系的实证研究	12382966
什么改变中国	10572722
听厉以宁讲经济学	13380548
请等到2011年：中美日投资大趋势	16184645
上市公司大股东——管理者合谋与公司治理效率研究	19722854
An Inquiry into the Nature and Causes of the Wealth of Nations （国富论）	7612175
2013年上海典当业发展报告	19028418
听巴菲特讲投资之道	8293520
旅游管理专业学生必读	11535786
中国共产党与农业现代化	16290057
克贫攻坚：中国农村扶贫资金效率研究	14756510
一年十倍的期货操盘策略（三）：分时技巧	12497104
西方经济思想史导论	9779806
印度式增长	10581487
明明白白看年报（第2版）	10084263
经济学大家：刘国光传	19252952
对冲基金风云录1：东邪西毒	9717947
企业江湖	9908183
新时期中国经济发展道路研究	11746135
共和国的经济与周恩来	11510463
没人买时如何卖:销售大量最值钱的12堂培训课	9699425
我读管理经典	8638495
我能击败市场	8059106
淘宝网店页面设计、布局、配色、装修一本就够	9587681
中国—阿拉伯国家经贸论坛理论研讨会论文集. 2012.第3辑	16288766
国家战略中的宁夏未来	15988264
欧亚时代	12917316
受益一生的经济学知识	9603062
我国城乡居民大病保险发展模式研究	12577903
纯电动拯救世界	19292810
别败在不会做人上	10432041
投资学基础	18444582
步步微赢	8842794
马克思“世界历史”理论与经济全球化指向	10729394
商业贿赂风险管理	12831291
巴菲特最有价值的11种投资智慧	18212189
印度世纪果真要来了？	11906286
一本书学会做房地产经纪人(实战强化版)	18880837
地产真相	19491512
世界大转折	8342809
公共管理案例教学理论与实践	11702696
读懂中国改革（套装全2册）	10561912
O2O应该这样做	15303521
兴衰30年：中国企业30年成败模式	15911745
丝路吴忠与吴忠思路	16252076
刘邦驰文集	11536009
投资人与创业团队的那些事	18443440
危机不慌	7844093
笑死你的博弈学	16402297
褚时健管理法	18877430
决战中高层：中高层管理的86个核心问题	12383644
欠发达民族地区科学发展研究	19724953
打造中国经济升级版——战略构想和总体设计	16175984
彼得原理	7489225
资本金融学	9703166
全球视野下的科技创新中心城市建设	16303842
2013长三角地区经济发展报告	19028523
持续变革管理：外力、沉浮和变革	10023333
美元陷阱	18275241
大国的兴衰（上下册）	10560848
转型抉择——2020	12918452
牛市与泡沫——股市危机如何自救	15603085
体系的力量——从体系看德国经济的成功	10575458
罗斯柴尔德家族（上中下）	10568287
国资新局：企业国有产权管理经典案例1	9908751
马克思主义经济理论研究1（马克思主义研究资料·平装第17卷）	11069171
中国上市公司债务融资治理研究	12382731
用经济头脑经营人生	19260695
一本书读懂客户心理：七步快速搞定人	10081599
制度红利：制度对经济增长的决定性影响	12833450
总经理财务一本通	12709730
世界30年：全球政治、权力和繁荣的演变	9956727
读懂中国改革：新一轮改革的战略与路径	10561704
中国分省企业经营环境指数2013年报告	10583422
全面预算管理	18157733
中国各阶层财富报告	20085107
图说物业管理	9595676
职场露脸术	10711867
微管理：沟通的策略	9320245
供应商管理：寻找供应商金库的钥匙	10712337
货币的逻辑	10231449
颠覆金融：互联网金融的机会大潮	9748835
互联创新	19644852
泛长三角区域合作背景下的江苏经济创新发展	11530551
告别速度：中国经济下一个十年增长动力何在	9680495
经济法律法规	16124050
货币革命：改变经济未来的虚拟货币	15819296
农民专业合作社成长的影响因素	19631472
中国经济改革与发展研究报告2014	18076423
与私募共赢：总经理PE融资读本	10063006
外派回任：跨国企业全球领导力与组织创新之重构	18718999
冯仑内部讲话：关键时，冯仑说了什么	8137591
提升团队战斗力的五个加速器	17396710
转型升级的新战略与新对策：上海加快建设具有全球影响力的科技创新中心研究	16307477
中国保单持有人利益保护制度研究	11627678
大变革时代的中国经济	18466976
出路：当“GDP大跃进”失灵的时候	10558674
好品牌自己会说话	10441700
宁夏经济蓝皮书（2013）	15901053
微营销引爆大利润	9286601
跟德鲁克学营销	10562673
CEO谈管理	19959802
笑死你的经济学	16402944
中国经济大趋势3	12575440
转型期的腐败治理——基于不同国家和地区经验的比较研究	16306870
谁也逃不掉的通胀大周期	9572152
我的人生哲学	5702088
过招：经销商全面突围	10712774
改革红利：十八大后转型与改革的五大趋势	12578044
再见，平庸时代	19789186
经济增长中的技术进步机制：基于理论变迁的研究	16177920
五千年未有之大变局	12832587
读懂中国改革2：寻找改革突破口	10561419
农民增收长效机制研究——以江西为例	10369360
低碳经济时代的四川产业发展战略	11536951
中国—阿拉伯货架经贸论坛中阿经贸关系发展进程2011年度报告	16289116
区域现代化理论与实践研究	19104781
基于重庆实证的新农村建设中土地流转机制研究	11533969
索罗斯模式	9929276
股市投资心经	9202527
管理新现实	7687700
石油战争	13310919
民国经济故事	15243665
世界城市文化力量	19631654
普京政治经济学	18466517
P2P：中国式高收益债券投资指南	9571767
青年人不可不知的经济学常识	20260668
粉丝经济学	19959326
超越竞争	9824892
西方经济演化分析史	12888388
地区投入产出模型扩展研究	11709748
“巴黎手稿”再研究：文献、思想与历史地位	19079679
一件T恤的全球经济之旅	19869129
捆住市场的手	11950191
大操盘手	11144432
投资自己是一种习惯	12182285
理性乐观派：一部人类经济进步史	11579246
美国人的理财经	16645853
中国关中—天水经济区发展报告（2013）	18141609
大国崛起之谜	19636295
中国经济思想史撷要	17395395
把生命浪费在美好的事物上	12041051
低智商社会	9705412
欧债风云	10569729
经济全球化背景下中国银行业税收制度研究	11834161
投资策略实战分析	10218202
冯仑谈商录	13243455
供应链增值	18079389
真实的中国：中国模式与城市化变革的反思	10582479
西方经济思想史导论	17394782
基础会计（第二版）	16598292
财报粉饰面对面	16593902
卡耐基经商之道	11040186
创新的洞见	18345276
中国文化产业振兴之路	10725626
新政机遇：改革锦标赛与市场新动力	9759519
看懂互联网金融这局棋	18429638
现金流建模边学边练	16837317
产业集聚与集聚经济圈的演进	18329544
经营战略全史	18254053
滥用市场支配地位的规制研究	18053402
商业模式的经济解释：深度解构商业模式密码	8268957
中国企业对外直接投资分析报告（2014）	18079403
成思危论虚拟商务	18538010
微信微博智能营销一本通	9594919
你的网站赚钱吗	8875723
人民币汇率制度选择的政治和经济分析	18488896
投资在第二个失去的十年	10178237
金权博弈	20368210
杨志恒文集	11703552
追逐高盛：华尔街的操作术	10586018
未知：将不确定转化为机会	16417996
均衡中国：长三角发展新模式	18444897
中国创意产业发展报告.2013	12579797
国富论	798625
不懂授权，你会把自己累死	12604064
环球投资旅行：穿越六大洲的投资奇遇	10176986
在星巴克要买大杯咖啡	10299847
物业经理365天超级管理手册	15427123
中国国有银行制度变迁：适应性效率与功能演进	12384788
管理员工有绝招	10713384
世界经济变局	7660164
科学发展在江苏 成就辉煌看十年	19104922
充分就业与价格稳定	15671653
打破思维里的框：激发创造力只需五步	10081026
李嘉诚：我的管理哲学	9794770
中国县域经济推动产业升级实践	12085992
中国经济的三大难题	19489856
一切皆有价	9750454
中国重组：一个中国投资银行家的亲历与思考	16784342
新宏观主义	12916081
犹太人赚钱的智慧	9710661
争议比特币	9752521
十八大后经济改革与转型	18372111
需求因素对中国三次产业增长的影响研究	11872217
结构调整与经济发展方式转变	16128861
中国－阿拉伯文化产业合作发展论坛文集	16289698
长尾理论	19489561
创新增长合作与中美经贸关系	17294457
完美竞技	9765152
投资者的敌人	13410505
社会化媒体与企业安全	7717474
西部经济论坛	11745831
经济学课件V：如何避免滑入中等收入陷阱	15841091
会展、经济与城市：关于中国“广交会”的综合研究（新）	17642707
一看就会的出纳入门书	14188250
另类	9353079
关于《21世纪资本论》一书你所需要知道的一切	13410034
驯兽华尔街	10280355
中国2016	19377069
世界第一：马云和阿里帝国	6984684
中国双向投资政策指南	19054077
中国电力市场结构规制改革研究	11627745
农村剩余劳动力转移与内生技术进步模式	10681824
销售读心术	14892579
大洗牌：全球金融秩序最后角力	15431239
思考致富	11308406
科技原创苦旅	19725373
会计信息系统（第六版）	16597267
解密交易人的圣杯：卡玛利拉方程	11289725
繁荣的背后	858925
绽放：听世界500强企业女总裁聊聊职场	9704825
现代西方经济学名著导读	12579277
政治算术	16812565
志新论语	19103176
价值为王	10511395
经济学入门	9720086
探寻当代最优发展模式	19724489
理念的力量	11479832
中国“西三角”经济圈发展战略研究	19723301
柳州发展战略研究：实业兴市 开放强柳	16303382
谁撬动了银川经济	16246844
随机生存的智慧	10574918
资源转型城市的科学发展之路	16373547
期权波动率交易策略	8806579
知识经济概论	15706289
改革之路	20343449
利润：企业利润持续增长之道	10081439
Hello Kitty的秘密	12187363
大洗牌	8507219
商务沟通与交流（第二版）	18328620
二手房销售超级训练手册	9490482
互联网思维	2806561
